accounts.firefox.com:HSTS	0	17400	1518987164460,1,1
www.google-analytics.com:HSTS	0	17400	1514321563802,1,1
www.google.com^firstPartyDomain=google.search.suggestions.mozilla:HSTS	0	18129	1597959990963,1,0,2
tiles.services.mozilla.com:HSTS	0	18129	1597960006421,1,0,2
firefox.settings.services.mozilla.com:HSTS	0	18129	1597960137654,1,0,2
www.mozilla.org:HSTS	0	17400	1534971163571,1,0
accounts.firefox.com:HPKP	0	17400	1508619164461,1,1,WoiWRyIOVNa9ihaBciRSC7XHjliYS9VwUGOIud4PB18=r/mIkG3eEpVdm+u/ko/cwxzOMo1bk4TyHIlByibiA5E=
normandy.cdn.mozilla.net:HPKP	0	17400	1503521563158,1,0,WoiWRyIOVNa9ihaBciRSC7XHjliYS9VwUGOIud4PB18=r/mIkG3eEpVdm+u/ko/cwxzOMo1bk4TyHIlByibiA5E=YLh1dUR9y6Kja30RrAn7JKnbQG/uEtLMkBgFF2Fuihg=sRHdihwgkaib1P1gxX8HFszlD+7/gTfNvuAybgLPNis=
snippets.cdn.mozilla.net:HSTS	0	17400	1534972321988,1,0
normandy-cloudfront.cdn.mozilla.net:HPKP	0	17400	1503521563008,1,0,WoiWRyIOVNa9ihaBciRSC7XHjliYS9VwUGOIud4PB18=r/mIkG3eEpVdm+u/ko/cwxzOMo1bk4TyHIlByibiA5E=YLh1dUR9y6Kja30RrAn7JKnbQG/uEtLMkBgFF2Fuihg=sRHdihwgkaib1P1gxX8HFszlD+7/gTfNvuAybgLPNis=
shavar.services.mozilla.com^firstPartyDomain=safebrowsing.86868755-6b82-4842-b301-72671a0db32e.mozilla:HSTS	1	18129	1597959989490,1,1,2
normandy-cloudfront.cdn.mozilla.net:HSTS	0	17400	1534971163007,1,1
normandy.cdn.mozilla.net:HSTS	0	17400	1534971163156,1,1
aus5.mozilla.org:HSTS	0	17400	1534971162690,1,0
